{
    "curves": {
        "main": [
            {
                "temp": 25,
                "speed": 50
            },
            {
                "temp": 35,
                "speed": 35
            }
        ]
    },
    "gpus": {
        "uuid": "main",
        "uuid2": "non_existing"
    }
}
