{
    "curves": {
        "main": [
            {
                "temp": 25,
                "speed": 50
            },
            {
                "temp": 35,
                "speed": 35
            }
        ]
    }
}