{
    "curves": {
        "main": [
            {
                "temp": 15,
                "speed": 15
            },
            {
                "temp": 25,
                "speed": 25
            },
            {
                "temp": 35,
                "speed": 35
            },
            {
                "temp": "non_integer",
                "speed": "non_integer"
            }
        ]
    }
}